; Engine configuration file.
; It's best edited using the editor UI and not directly,
; since the parameters that go here are not all obvious.
;
; Format:
;   [section] ; section goes between []
;   param=value ; assign values to parameters

config_version=5

[application]

config/name="new_project_template"
config/features=PackedStringArray("4.1")
config/icon="res://icon.png"

[audio]

buses/default_bus_layout="res://Core/SoundPlayer/audio_bus.tres"

[autoload]

SoundPlayer="*res://Core/SoundPlayer/SoundPlayer.tscn"
Transitions="*res://Core/Transitions/Transitions.tscn"
OptionsController="*res://Core/Options/OptionsController.gd"

[gui]

common/drop_mouse_on_gui_input_disabled=true

[physics]

common/enable_pause_aware_picking=true

[rendering]

environment/defaults/default_environment="res://default_env.tres"
